{
    "type": "service_account",
    "project_id": "bdd-energy",
    "private_key_id": "68feab38f9f96c4abd5649a614775dc7895cf048",
    "private_key": "-----BEGIN PRIVATE KEY-----\nMIIEvgIBADANBgkqhkiG9w0BAQEFAASCBKgwggSkAgEAAoIBAQDAwZWp9LQ3oOMe\nHS9yAszR/nd1JcD3xLvUSx90fTlKZc1R8aWPuP1fkUmyAK0FEEO+9wtvjKvTynmG\nLkS7t7EYzzRqMTp0PMasOqLrIkUe3ny6/dqXHovzmOg+r7fVZUJ9NAeiyuobwji5\nse6aqsB++ORuMOtcmTpQttRUe24uo7IzjGlgcyDMqZ1D6LJq5eSm9LJeT81neOEP\nWkhvPj65+ck7uG2JZ2NOW4jUHQTxwgHndvm/qXxqG55CsrgSx2OK1mjFkpwmEDtQ\n4rfnaSzxfVWg7O9z8RfYniyeNzwdQn0/+o42ZGY3eKsdF8WCNSx/9LNn1RGjDToQ\nGrdyJrXfAgMBAAECggEAGxE0BdUlwhKsFzb29MtoMpbJSeB+0UFwNMFFzf2loAkH\n726qQTKIwIpDhHpBfDlf91Qeks/4naQhiNI8zEq2VNWyi7TqUJdA42oqetqURTTt\n4/OGEKbKn+7ZXLAfyu34tmHU2VXQJmIRcCCzG5ydrQF1+56P9lqn9zHtQrMVx6OY\n5VxOHERk6heng7FoV10nwHGJjpgBrdUj0NVeH77ICRktf2cMNgiOsYFrPMJ+AKIw\nrVUGiqVoM7DY09MBokJIIFjq6o+qIFGMHJ5nvENwdgjh4Oo5iT/z8LfSF2dN1d7Y\nbVTZ2tB2S6AQUNJW3ITTTCU7WfrcyoDyQiyktoBNwQKBgQDnV04E7ABsXP3paGni\nPUM4Y6m1JF84TNJImwBpDaD2TOcap+lcow6FO5j7hjlKbvjzcyNPenVHsq/k3zaZ\nsCWEiTfeTNE05EbHEuxBbGvibYyhniCOkGCArkdnCcD+FO0WJFkPEGrvB6z6kVb2\nnptk0zbkGCVPt33Yk/KS8s+MnwKBgQDVTWZZM1+cwS3D2iJs9aOM8mVroWMAkVIZ\nrnh92GXYFD7mXPmAzFNeARocMXjjWR+PcGFfluQ5uu3YQbSAV4kUYnI78rSKs5yE\nTVJ6WzUqZDpdyqHEnY2UtnLTkN8ncctHzuzyTurtiK5isUeBOMvCXyhWS2a+LYNx\nxf8bB+MOwQKBgQDbjRLBPw0Dypk7C9n5WXTTLlqgTB2GO/oR5/DSwplxRvjJZnPl\nc+ZS8YW1p+P1TS49NZdcVXa6jc2641BZOT/R8bww4CxoCwFU6xOG35Pft2IQ/BYf\n1suPNFcVZb9gI5ICQoq27jjeEyXKQ2cJ9Oq7HGzqujOm3Ri1E2vSpFfvNwKBgQCi\nNdVCuqXYgLQ7//Q0Jm21L1Vfj4DJmrnz29G36kwxEdxvtX7sqvYvQ+lGTX0gb9Nn\nctAqMIbpPDXKQtVw0KDnhqJW4pDX9hVuK5swf5Ij5crZLtLsweA8mq8iI0cBKTGt\nLzjUYJ2Z/FqZpTW6mKWj8FetoHPG5rfSWv9Q4COVQQKBgG7N9J8ZRhrxqn6cBTVx\nGYJHJmzJP+cOyjDbCWEseiVW7W5goqEOj/wyaN33bOK2ywC9Nw0B8KNrr4lTXl5x\nwv3y+DK80ET1ctAADy1DUynVdVDW5fZMm2/5cz+8tl1ZhwODbF9RBix6vS70Aygz\n5jotCob2LHQYIgjuQpHaCafh\n-----END PRIVATE KEY-----\n",
    "client_email": "bdd-energy@bdd-energy.iam.gserviceaccount.com",
    "client_id": "105049921356322475704",
    "auth_uri": "https://accounts.google.com/o/oauth2/auth",
    "token_uri": "https://oauth2.googleapis.com/token",
    "auth_provider_x509_cert_url": "https://www.googleapis.com/oauth2/v1/certs",
    "client_x509_cert_url": "https://www.googleapis.com/robot/v1/metadata/x509/bdd-energy%40bdd-energy.iam.gserviceaccount.com"
}
